[
	{
		"_id": "crsbk-0001",
		"userId": "ABC123",
		"courseId": "course100",
		"isPaid": true,
		"paymentMethod": "cash",
		"dateTimeEnrolled": "2023-02-27-1100AM"
	},
	{
		"_id": "crsbk-0002",
		"userId": "ABC123",
		"courseId": "course123",
		"isPaid": true,
		"paymentMethod": "cash",
		"dateTimeEnrolled": "2023-02-27-1100AM"
	},
	{
		"_id": "crsbk-0003",
		"userId": "GHI789",
		"courseId": "course123",
		"isPaid": true,
		"paymentMethod": "cheque",
		"dateTimeEnrolled": "2023-02-27-1104AM"
	}

]